{
  "extends": ["tslint:recommended", "tslint-config-prettier"],
  "rules": {
    "forin": false,
    "no-console": false,
    "only-arrow-functions": false,
    "prefer-const": false,
    "prefer-for-of": false,
    "ban-types": false
  }
}
